{
  "project_info": {
    "project_number": "519998734448",
    "firebase_url": "https://sektus-scruban.firebaseio.com",
    "project_id": "sektus-scruban",
    "storage_bucket": "sektus-scruban.appspot.com"
  },
  "client": [
    {
      "client_info": {
        "mobilesdk_app_id": "1:519998734448:android:cdb49104d15bad025974b5",
        "android_client_info": {
          "package_name": "com.sektus.scruban"
        }
      },
      "oauth_client": [
        {
          "client_id": "519998734448-hj1ju6t2f142cv0mt2ruoil605kmgh4m.apps.googleusercontent.com",
          "client_type": 3
        }
      ],
      "api_key": [
        {
          "current_key": "AIzaSyCbR7McHxnh8CDo50-z7XsLGXwKmPnaiIQ"
        }
      ],
      "services": {
        "appinvite_service": {
          "other_platform_oauth_client": [
            {
              "client_id": "519998734448-hj1ju6t2f142cv0mt2ruoil605kmgh4m.apps.googleusercontent.com",
              "client_type": 3
            }
          ]
        }
      }
    }
  ],
  "configuration_version": "1"
}